{
 "images": [
   {
     "src": "./img/graphic-design/graphic-design1.jpg",
     "type": "graphic-design",
     "description": "Cross platform solution",
     "isActive": false,
     "alt": "Graphic Design"
   },
   {
     "src": "./img/graphic-design/graphic-design2.jpg",
     "type": "graphic-design",
     "description": "Creative Design",
     "isActive": false,
     "alt": "Graphic Design"
   },
   {
     "src": "./img/graphic-design/graphic-design3.jpg",
     "type": "graphic-design",
     "description": "Amazing Features",
     "isActive": false,
     "alt": "Graphic Design"
   },
   {
     "src": "./img/graphic-design/graphic-design4.jpg",
     "type": "graphic-design",
     "description": "Creative Design",
     "isActive": false,
     "alt": "Graphic Design"
   },
   {
     "src": "./img/graphic-design/graphic-design5.jpg",
     "type": "graphic-design",
     "description": "Creative Design",
     "isActive": false,
     "alt": "Graphic Design"
   },
   {
     "src": "./img/graphic-design/graphic-design6.jpg",
     "type": "graphic-design",
     "description": "Cross platform solution",
     "isActive": false,
     "alt": "Graphic Design"
   },
   {
     "src": "./img/graphic-design/graphic-design7.jpg",
     "type": "graphic-design",
     "description": "Creative Design",
     "isActive": false,
     "alt": "Graphic Design"
   },
   {
     "src": "./img/graphic-design/graphic-design8.jpg",
     "type": "graphic-design",
     "description": "Creative Design",
     "isActive": false,
     "alt": "Graphic Design"
   },
   {
     "src": "./img/graphic-design/graphic-design9.jpg",
     "type": "graphic-design",
     "description": "Amazing Features",
     "isActive": false,
     "alt": "Graphic Design"
   },
   {
     "src": "./img/graphic-design/graphic-design10.jpg",
     "type": "graphic-design",
     "description": "Cross platform solution",
     "isActive": false,
     "alt": "Graphic Design"
   },
   {
     "src": "./img/graphic-design/graphic-design11.jpg",
     "type": "graphic-design",
     "description": "Amazing Features",
     "isActive": false,
     "alt": "Graphic Design"
   },
   {
     "src": "./img/graphic-design/graphic-design12.jpg",
     "type": "graphic-design",
     "description": "Creative Design",
     "isActive": false,
     "alt": "Graphic Design"
   },
   {
     "src": "./img/graphic-design/graphic-design13.jpg",
     "type": "graphic-design",
     "description": "Beautiful Details",
     "isActive": false,
     "alt": "Graphic Design"
   },
   {
     "src": "./img/graphic-design/graphic-design14.jpg",
     "type": "graphic-design",
     "description": "Amazing Features",
     "isActive": false,
     "alt": "Graphic Design"
   },
   {
     "src": "./img/graphic-design/graphic-design15.jpg",
     "type": "graphic-design",
     "description": "Creative Design",
     "isActive": false,
     "alt": "Graphic Design"
   },
   {
     "src": "./img/graphic-design/graphic-design16.jpg",
     "type": "graphic-design",
     "description": "Creative Design",
     "isActive": false,
     "alt": "Graphic Design"
   },
   {
     "src": "./img/graphic-design/graphic-design17.jpg",
     "type": "graphic-design",
     "description": "Beautiful Details",
     "isActive": false,
     "alt": "Graphic Design"
   },
   {
     "src": "./img/graphic-design/graphic-design18.jpg",
     "type": "graphic-design",
     "description": "Amazing Features",
     "isActive": false,
     "alt": "Graphic Design"
   },
   {
     "src": "./img/graphic-design/graphic-design19.jpg",
     "type": "graphic-design",
     "description": "Creative Design",
     "isActive": false,
     "alt": "Graphic Design"
   },
   {
     "src": "./img/graphic-design/graphic-design20.jpg",
     "type": "graphic-design",
     "description": "Creative Design",
     "isActive": false,
     "alt": "Graphic Design"
   },
   {
     "src": "./img/graphic-design/graphic-design21.jpg",
     "type": "graphic-design",
     "description": "Creative Design",
     "isActive": false,
     "alt": "Graphic Design"
   },
   {
     "src": "./img/graphic-design/graphic-design22.jpg",
     "type": "graphic-design",
     "description": "Amazing Features",
     "isActive": false,
     "alt": "Graphic Design"
   },
   {
     "src": "./img/graphic-design/graphic-design23.jpg",
     "type": "graphic-design",
     "description": "Beautiful Details",
     "isActive": false,
     "alt": "Graphic Design"
   },
   {
     "src": "./img/graphic-design/graphic-design24.jpg",
     "type": "graphic-design",
     "description": "Amazing Features",
     "isActive": false,
     "alt": "Graphic Design"
   },


   {
     "src": "./img/web-design/web-design1.jpg",
     "type": "web-design",
     "description": "Amazing Features",
     "isActive": false,
     "alt": "Web Design"
   },
   {
     "src": "./img/web-design/web-design2.jpg",
     "type": "web-design",
     "description": "Amazing Features",
     "isActive": false,
     "alt": "Web Design"
   },
   {
     "src": "./img/web-design/web-design3.jpg",
     "type": "web-design",
     "description": "Amazing Features",
     "isActive": false,
     "alt": "Web Design"
   },
   {
     "src": "./img/web-design/web-design4.jpg",
     "type": "web-design",
     "description": "Amazing Features",
     "isActive": false,
     "alt": "Web Design"
   },
   {
     "src": "./img/web-design/web-design5.jpg",
     "type": "web-design",
     "description": "Amazing Features",
     "isActive": false,
     "alt": "Web Design"
   },
   {
     "src": "./img/web-design/web-design6.jpg",
     "type": "web-design",
     "description": "Amazing Features",
     "isActive": false,
     "alt": "Web Design"
   },
   {
     "src": "./img/web-design/web-design7.jpg",
     "type": "web-design",
     "description": "Amazing Features",
     "isActive": false,
     "alt": "Web Design"
   },
   {
     "src": "./img/web-design/web-design8.jpg",
     "type": "web-design",
     "description": "Amazing Features",
     "isActive": false,
     "alt": "Web Design"
   },
   {
     "src": "./img/web-design/web-design9.jpg",
     "type": "web-design",
     "description": "Amazing Features",
     "isActive": false,
     "alt": "Web Design"
   },
   {
     "src": "./img/web-design/web-design10.jpg",
     "type": "web-design",
     "description": "Amazing Features",
     "isActive": false,
     "alt": "Web Design"
   },
   {
     "src": "./img/web-design/web-design11.jpg",
     "type": "web-design",
     "description": "Amazing Features",
     "isActive": false,
     "alt": "Web Design"
   },
   {
     "src": "./img/web-design/web-design12.jpg",
     "type": "web-design",
     "description": "Amazing Features",
     "isActive": false,
     "alt": "Web Design"
   },
   {
     "src": "./img/web-design/web-design13.jpg",
     "type": "web-design",
     "description": "Amazing Features",
     "isActive": false,
     "alt": "Web Design"
   },
   {
     "src": "./img/web-design/web-design14.jpg",
     "type": "web-design",
     "description": "Amazing Features",
     "isActive": false,
     "alt": "Web Design"
   },
   {
     "src": "./img/web-design/web-design15.jpg",
     "type": "web-design",
     "description": "Amazing Features",
     "isActive": false,
     "alt": "Web Design"
   },
   {
     "src": "./img/web-design/web-design16.jpg",
     "type": "web-design",
     "description": "Amazing Features",
     "isActive": false,
     "alt": "Web Design"
   },
   {
     "src": "./img/web-design/web-design17.jpg",
     "type": "web-design",
     "description": "Amazing Features",
     "isActive": false,
     "alt": "Web Design"
   },
   {
     "src": "./img/web-design/web-design18.jpg",
     "type": "web-design",
     "description": "Amazing Features",
     "isActive": false,
     "alt": "Web Design"
   },
   {
     "src": "./img/web-design/web-design19.jpg",
     "type": "web-design",
     "description": "Amazing Features",
     "isActive": false,
     "alt": "Web Design"
   },
   {
     "src": "./img/web-design/web-design20.jpg",
     "type": "web-design",
     "description": "Amazing Features",
     "isActive": false,
     "alt": "Web Design"
   },
   {
     "src": "./img/web-design/web-design21.jpg",
     "type": "web-design",
     "description": "Amazing Features",
     "isActive": false,
     "alt": "Web Design"
   },
   {
     "src": "./img/web-design/web-design22.jpg",
     "type": "web-design",
     "description": "Amazing Features",
     "isActive": false,
     "alt": "Web Design"
   },
   {
     "src": "./img/web-design/web-design23.jpg",
     "type": "web-design",
     "description": "Amazing Features",
     "isActive": false,
     "alt": "Web Design"
   },
   {
     "src": "./img/web-design/web-design24.jpg",
     "type": "web-design",
     "description": "Amazing Features",
     "isActive": false,
     "alt": "Web Design"
   },


   {
     "src": "./img/landing-page/landing-page1.jpg",
     "type": "landing-page",
     "description": "Amazing Features",
     "isActive": false,
     "alt": "Landing Page"
   },
   {
     "src": "./img/landing-page/landing-page2.jpg",
     "type": "landing-page",
     "description": "Amazing Features",
     "isActive": false,
     "alt": "Landing Page"
   },
   {
     "src": "./img/landing-page/landing-page3.jpg",
     "type": "landing-page",
     "description": "Amazing Features",
     "isActive": false,
     "alt": "Landing Page"
   },
   {
     "src": "./img/landing-page/landing-page4.jpg",
     "type": "landing-page",
     "description": "Amazing Features",
     "isActive": false,
     "alt": "Landing Page"
   },
   {
     "src": "./img/landing-page/landing-page5.jpg",
     "type": "landing-page",
     "description": "Amazing Features",
     "isActive": false,
     "alt": "Landing Page"
   },
   {
     "src": "./img/landing-page/landing-page6.jpg",
     "type": "landing-page",
     "description": "Amazing Features",
     "isActive": false,
     "alt": "Landing Page"
   },
   {
     "src": "./img/landing-page/landing-page7.jpg",
     "type": "landing-page",
     "description": "Amazing Features",
     "isActive": false,
     "alt": "Landing Page"
   },
   {
     "src": "./img/landing-page/landing-page8.jpg",
     "type": "landing-page",
     "description": "Amazing Features",
     "isActive": false,
     "alt": "Landing Page"
   },
   {
     "src": "./img/landing-page/landing-page9.jpg",
     "type": "landing-page",
     "description": "Amazing Features",
     "isActive": false,
     "alt": "Landing Page"
   },
   {
     "src": "./img/landing-page/landing-page10.jpg",
     "type": "landing-page",
     "description": "Amazing Features",
     "isActive": false,
     "alt": "Landing Page"
   },
   {
     "src": "./img/landing-page/landing-page11.jpg",
     "type": "landing-page",
     "description": "Amazing Features",
     "isActive": false,
     "alt": "Landing Page"
   },
   {
     "src": "./img/landing-page/landing-page12.jpg",
     "type": "landing-page",
     "description": "Amazing Features",
     "isActive": false,
     "alt": "Landing Page"
   },
   {
     "src": "./img/landing-page/landing-page13.jpg",
     "type": "landing-page",
     "description": "Amazing Features",
     "isActive": false,
     "alt": "Landing Page"
   },
   {
     "src": "./img/landing-page/landing-page14.jpg",
     "type": "landing-page",
     "description": "Amazing Features",
     "isActive": false,
     "alt": "Landing Page"
   },
   {
     "src": "./img/landing-page/landing-page15.jpg",
     "type": "landing-page",
     "description": "Amazing Features",
     "isActive": false,
     "alt": "Landing Page"
   },
   {
     "src": "./img/landing-page/landing-page16.jpg",
     "type": "landing-page",
     "description": "Amazing Features",
     "isActive": false,
     "alt": "Landing Page"
   },
   {
     "src": "./img/landing-page/landing-page17.jpg",
     "type": "landing-page",
     "description": "Amazing Features",
     "isActive": false,
     "alt": "Landing Page"
   },
   {
     "src": "./img/landing-page/landing-page18.jpg",
     "type": "landing-page",
     "description": "Amazing Features",
     "isActive": false,
     "alt": "Landing Page"
   },
   {
     "src": "./img/landing-page/landing-page19.jpg",
     "type": "landing-page",
     "description": "Amazing Features",
     "isActive": false,
     "alt": "Landing Page"
   },
   {
     "src": "./img/landing-page/landing-page20.jpg",
     "type": "landing-page",
     "description": "Amazing Features",
     "isActive": false,
     "alt": "Landing Page"
   },
   {
     "src": "./img/landing-page/landing-page21.jpg",
     "type": "landing-page",
     "description": "Amazing Features",
     "isActive": false,
     "alt": "Landing Page"
   },
   {
     "src": "./img/landing-page/landing-page22.jpg",
     "type": "landing-page",
     "description": "Amazing Features",
     "isActive": false,
     "alt": "Landing Page"
   },
   {
     "src": "./img/landing-page/landing-page23.jpg",
     "type": "landing-page",
     "description": "Amazing Features",
     "isActive": false,
     "alt": "Landing Page"
   },
   {
     "src": "./img/landing-page/landing-page24.jpg",
     "type": "landing-page",
     "description": "Amazing Features",
     "isActive": false,
     "alt": "Landing Page"
   },


   {
     "src": "./img/wordpress/wordpress1.jpg",
     "type": "wordpress",
     "description": "Amazing Features",
     "isActive": false,
     "alt": "Wordpress"
   },
   {
     "src": "./img/wordpress/wordpress2.jpg",
     "type": "wordpress",
     "description": "Amazing Features",
     "isActive": false,
     "alt": "Wordpress"
   },
   {
     "src": "./img/wordpress/wordpress3.jpg",
     "type": "wordpress",
     "description": "Amazing Features",
     "isActive": false,
     "alt": "Wordpress"
   },
   {
     "src": "./img/wordpress/wordpress4.jpg",
     "type": "wordpress",
     "description": "Amazing Features",
     "isActive": false,
     "alt": "Wordpress"
   },
   {
     "src": "./img/wordpress/wordpress5.jpg",
     "type": "wordpress",
     "description": "Amazing Features",
     "isActive": false,
     "alt": "Wordpress"
   },
   {
     "src": "./img/wordpress/wordpress6.jpg",
     "type": "wordpress",
     "description": "Amazing Features",
     "isActive": false,
     "alt": "Wordpress"
   },
   {
     "src": "./img/wordpress/wordpress7.jpg",
     "type": "wordpress",
     "description": "Amazing Features",
     "isActive": false,
     "alt": "Wordpress"
   },
   {
     "src": "./img/wordpress/wordpress8.jpg",
     "type": "wordpress",
     "description": "Amazing Features",
     "isActive": false,
     "alt": "Wordpress"
   },
   {
     "src": "./img/wordpress/wordpress9.jpg",
     "type": "wordpress",
     "description": "Amazing Features",
     "isActive": false,
     "alt": "Wordpress"
   },
   {
     "src": "./img/wordpress/wordpress10.jpg",
     "type": "wordpress",
     "description": "Amazing Features",
     "isActive": false,
     "alt": "Wordpress"
   },
   {
     "src": "./img/wordpress/wordpress11.jpg",
     "type": "wordpress",
     "description": "Amazing Features",
     "isActive": false,
     "alt": "Wordpress"
   },
   {
     "src": "./img/wordpress/wordpress12.jpg",
     "type": "wordpress",
     "description": "Amazing Features",
     "isActive": false,
     "alt": "Wordpress"
   },
   {
     "src": "./img/wordpress/wordpress13.jpg",
     "type": "wordpress",
     "description": "Amazing Features",
     "isActive": false,
     "alt": "Wordpress"
   },
   {
     "src": "./img/wordpress/wordpress14.jpg",
     "type": "wordpress",
     "description": "Amazing Features",
     "isActive": false,
     "alt": "Wordpress"
   },
   {
     "src": "./img/wordpress/wordpress15.jpg",
     "type": "wordpress",
     "description": "Amazing Features",
     "isActive": false,
     "alt": "Wordpress"
   },
   {
     "src": "./img/wordpress/wordpress16.jpg",
     "type": "wordpress",
     "description": "Amazing Features",
     "isActive": false,
     "alt": "Wordpress"
   },
   {
     "src": "./img/wordpress/wordpress17.jpg",
     "type": "wordpress",
     "description": "Amazing Features",
     "isActive": false,
     "alt": "Wordpress"
   },
   {
     "src": "./img/wordpress/wordpress18.jpg",
     "type": "wordpress",
     "description": "Amazing Features",
     "isActive": false,
     "alt": "Wordpress"
   },
   {
     "src": "./img/wordpress/wordpress19.jpg",
     "type": "wordpress",
     "description": "Amazing Features",
     "isActive": false,
     "alt": "Wordpress"
   },
   {
     "src": "./img/wordpress/wordpress20.jpg",
     "type": "wordpress",
     "description": "Amazing Features",
     "isActive": false,
     "alt": "Wordpress"
   },
   {
     "src": "./img/wordpress/wordpress21.jpg",
     "type": "wordpress",
     "description": "Amazing Features",
     "isActive": false,
     "alt": "Wordpress"
   },
   {
     "src": "./img/wordpress/wordpress22.jpg",
     "type": "wordpress",
     "description": "Amazing Features",
     "isActive": false,
     "alt": "Wordpress"
   },
   {
     "src": "./img/wordpress/wordpress23.jpg",
     "type": "wordpress",
     "description": "Amazing Features",
     "isActive": false,
     "alt": "Wordpress"
   },
   {
     "src": "./img/wordpress/wordpress24.jpg",
     "type": "wordpress",
     "description": "Amazing Features",
     "isActive": false,
     "alt": "Wordpress"
   }
 ]
}
